{"failedCount":0,"prefixedPath":"src\/test\/java\/Api\/tests\/users.feature","packageQualifiedName":"src.test.java.Api.tests.users","loopIndex":-1,"relativePath":"src\/test\/java\/Api\/tests\/users.feature","scenarioResults":[{"sectionIndex":0,"stepResults":[{"result":{"nanos":135238700,"millis":135.2387,"status":"passed"},"step":{"line":4,"prefix":"Given","index":0,"text":"url \"https:\/\/reqres.in\/\" + \"api\/users?page=2\""}},{"result":{"nanos":1277243900,"millis":1277.2439,"status":"passed"},"step":{"line":5,"prefix":"When","index":1,"text":"method get"},"stepLog":"19:36:05.223 request:\n1 > GET https:\/\/reqres.in\/api\/users?page=2\n1 > Host: reqres.in\n1 > Connection: Keep-Alive\n1 > User-Agent: Apache-HttpClient\/4.5.13 (Java\/11.0.16.1)\n1 > Accept-Encoding: gzip,deflate\n\n\n19:36:05.966 response time in milliseconds: 740\n1 < 200\n1 < Date: Wed, 19 Oct 2022 00:36:07 GMT\n1 < Content-Type: application\/json; charset=utf-8\n1 < Transfer-Encoding: chunked\n1 < Connection: keep-alive\n1 < X-Powered-By: Express\n1 < Access-Control-Allow-Origin: *\n1 < Etag: W\/\"406-ut0vzoCuidvyMf8arZpMpJ6ZRDw\"\n1 < Via: 1.1 vegur\n1 < Cache-Control: max-age=14400\n1 < CF-Cache-Status: HIT\n1 < Age: 2912\n1 < Report-To: {\"endpoints\":[{\"url\":\"https:\\\/\\\/a.nel.cloudflare.com\\\/report\\\/v3?s=vaphFYIrGwfpJvT5jY0bb%2BLWHrLc%2BHcFjzXv2YfZKnhehLr51RiPGfM%2FfSwA1j0LZ4ablpMTO53r8Q4RHjZuJqkEnI5CNQfsjfz9IQ6SGm0UZQ0bqj0JDILRJw%3D%3D\"}],\"group\":\"cf-nel\",\"max_age\":604800}\n1 < NEL: {\"success_fraction\":0,\"report_to\":\"cf-nel\",\"max_age\":604800}\n1 < Vary: Accept-Encoding\n1 < Server: cloudflare\n1 < CF-RAY: 75c57009896b67ce-MIA\n{\"page\":2,\"per_page\":6,\"total\":12,\"total_pages\":2,\"data\":[{\"id\":7,\"email\":\"michael.lawson@reqres.in\",\"first_name\":\"Michael\",\"last_name\":\"Lawson\",\"avatar\":\"https:\/\/reqres.in\/img\/faces\/7-image.jpg\"},{\"id\":8,\"email\":\"lindsay.ferguson@reqres.in\",\"first_name\":\"Lindsay\",\"last_name\":\"Ferguson\",\"avatar\":\"https:\/\/reqres.in\/img\/faces\/8-image.jpg\"},{\"id\":9,\"email\":\"tobias.funke@reqres.in\",\"first_name\":\"Tobias\",\"last_name\":\"Funke\",\"avatar\":\"https:\/\/reqres.in\/img\/faces\/9-image.jpg\"},{\"id\":10,\"email\":\"byron.fields@reqres.in\",\"first_name\":\"Byron\",\"last_name\":\"Fields\",\"avatar\":\"https:\/\/reqres.in\/img\/faces\/10-image.jpg\"},{\"id\":11,\"email\":\"george.edwards@reqres.in\",\"first_name\":\"George\",\"last_name\":\"Edwards\",\"avatar\":\"https:\/\/reqres.in\/img\/faces\/11-image.jpg\"},{\"id\":12,\"email\":\"rachel.howell@reqres.in\",\"first_name\":\"Rachel\",\"last_name\":\"Howell\",\"avatar\":\"https:\/\/reqres.in\/img\/faces\/12-image.jpg\"}],\"support\":{\"url\":\"https:\/\/reqres.in\/#support-heading\",\"text\":\"To keep ReqRes free, contributions towards server costs are appreciated!\"}}\n\n"},{"result":{"nanos":35600,"millis":0.0356,"status":"passed"},"step":{"line":6,"prefix":"Then","index":2,"text":"status 200"}}],"executorName":"main","line":3,"name":"Get users","description":"","durationMillis":1412.5182,"startTime":1666139764594,"failed":false,"refId":"[1:3]","endTime":1666139766024,"exampleIndex":-1},{"sectionIndex":1,"stepResults":[{"result":{"nanos":860700,"millis":0.8607,"status":"passed"},"step":{"line":10,"prefix":"Given","index":0,"text":"url \"https:\/\/reqres.in\/\"+\"\/api\/users\""}},{"result":{"nanos":25749500,"millis":25.7495,"status":"passed"},"step":{"line":11,"prefix":"And","index":1,"text":"request {\"name\": \"morpheus\",\"job\": \"leader\"}"}},{"result":{"nanos":585691900,"millis":585.6919,"status":"passed"},"step":{"line":12,"prefix":"When","index":2,"text":"method post"},"stepLog":"19:36:06.127 request:\n1 > POST https:\/\/reqres.in\/\/api\/users\n1 > Content-Type: application\/json; charset=UTF-8\n1 > Content-Length: 34\n1 > Host: reqres.in\n1 > Connection: Keep-Alive\n1 > User-Agent: Apache-HttpClient\/4.5.13 (Java\/11.0.16.1)\n1 > Accept-Encoding: gzip,deflate\n{\"name\":\"morpheus\",\"job\":\"leader\"}\n\n19:36:06.647 response time in milliseconds: 520\n1 < 201\n1 < Date: Wed, 19 Oct 2022 00:36:07 GMT\n1 < Content-Type: application\/json; charset=utf-8\n1 < Content-Length: 84\n1 < Connection: keep-alive\n1 < X-Powered-By: Express\n1 < Access-Control-Allow-Origin: *\n1 < Etag: W\/\"54-JgHERWpZBxiOpKCZ4LbpfQ2vlI8\"\n1 < Via: 1.1 vegur\n1 < CF-Cache-Status: DYNAMIC\n1 < Report-To: {\"endpoints\":[{\"url\":\"https:\\\/\\\/a.nel.cloudflare.com\\\/report\\\/v3?s=NXvqoNNittRfB%2FomtUBPt53aJTgWl86dx8D9wjQd8dOXYwodQ0O0x1vCZSiVH5oJr1%2BZq5n2iIH47%2BQLRHI57k0qxFGM4M3KcZnQ0vBooSfAH9C3uBzrLS4Xug%3D%3D\"}],\"group\":\"cf-nel\",\"max_age\":604800}\n1 < NEL: {\"success_fraction\":0,\"report_to\":\"cf-nel\",\"max_age\":604800}\n1 < Server: cloudflare\n1 < CF-RAY: 75c5700c4d55db05-MIA\n{\"name\":\"morpheus\",\"job\":\"leader\",\"id\":\"674\",\"createdAt\":\"2022-10-19T00:36:07.914Z\"}\n\n"},{"result":{"nanos":14200,"millis":0.0142,"status":"passed"},"step":{"line":13,"prefix":"Then","index":3,"text":"status 201"}}],"executorName":"main","line":9,"name":"Post new user","description":"","durationMillis":612.3163,"startTime":1666139766036,"failed":false,"refId":"[2:9]","endTime":1666139766649,"exampleIndex":-1},{"sectionIndex":2,"stepResults":[{"result":{"nanos":982600,"millis":0.9826,"status":"passed"},"step":{"line":16,"prefix":"Given","index":0,"text":"url \"https:\/\/reqres.in\/\"+\"api\/users\/2\""}},{"result":{"nanos":406500,"millis":0.4065,"status":"passed"},"step":{"line":17,"prefix":"And","index":1,"text":"request {\"name\": \"Ramiro\", \"job\": \"Programador\"}"}},{"result":{"nanos":522849300,"millis":522.8493,"status":"passed"},"step":{"line":18,"prefix":"When","index":2,"text":"method put"},"stepLog":"19:36:06.664 request:\n1 > PUT https:\/\/reqres.in\/api\/users\/2\n1 > Content-Type: application\/json; charset=UTF-8\n1 > Content-Length: 37\n1 > Host: reqres.in\n1 > Connection: Keep-Alive\n1 > User-Agent: Apache-HttpClient\/4.5.13 (Java\/11.0.16.1)\n1 > Accept-Encoding: gzip,deflate\n{\"name\":\"Ramiro\",\"job\":\"Programador\"}\n\n19:36:07.183 response time in milliseconds: 519\n1 < 200\n1 < Date: Wed, 19 Oct 2022 00:36:08 GMT\n1 < Content-Type: application\/json; charset=utf-8\n1 < Transfer-Encoding: chunked\n1 < Connection: keep-alive\n1 < X-Powered-By: Express\n1 < Access-Control-Allow-Origin: *\n1 < Etag: W\/\"4c-Aw7U3tHnCYagA8JL13+Vao66TQU\"\n1 < Via: 1.1 vegur\n1 < CF-Cache-Status: DYNAMIC\n1 < Report-To: {\"endpoints\":[{\"url\":\"https:\\\/\\\/a.nel.cloudflare.com\\\/report\\\/v3?s=Mpk8Dbs%2BISnSx88Yo3tZBiBA4NM84eWQV5j3EOrSI0H%2B1k8jl%2FvlfN%2F80TyTzKEksVQbFqt9%2Fs2gSshz2LHBiiTEg96vqrKROMgnX4Zc4zfDmL7E%2BshFg2JBkw%3D%3D\"}],\"group\":\"cf-nel\",\"max_age\":604800}\n1 < NEL: {\"success_fraction\":0,\"report_to\":\"cf-nel\",\"max_age\":604800}\n1 < Vary: Accept-Encoding\n1 < Server: cloudflare\n1 < CF-RAY: 75c5700fa94d0a16-MIA\n{\"name\":\"Ramiro\",\"job\":\"Programador\",\"updatedAt\":\"2022-10-19T00:36:08.451Z\"}\n\n"},{"result":{"nanos":11200,"millis":0.0112,"status":"passed"},"step":{"line":19,"prefix":"Then","index":3,"text":"status 200"}},{"result":{"nanos":49577300,"millis":49.5773,"status":"passed"},"step":{"line":20,"prefix":"And","index":4,"text":"match $.name == 'Ramiro'"}},{"result":{"nanos":1133100,"millis":1.1331,"status":"passed"},"step":{"line":21,"prefix":"And","index":5,"text":"match $.job == 'Programador'"}}],"executorName":"main","line":15,"name":"Put request","description":"","durationMillis":574.96,"startTime":1666139766660,"failed":false,"refId":"[3:15]","endTime":1666139767236,"exampleIndex":-1}],"callDepth":0,"name":"Get user on resq","description":"","resultDate":"2022-10-18 07:36:07 p. m.","durationMillis":2599.7945,"passedCount":3}