{"failedCount":0,"prefixedPath":"src\/test\/java\/Api\/get\/users.get.feature","packageQualifiedName":"src.test.java.Api.get.users.get","loopIndex":-1,"relativePath":"src\/test\/java\/Api\/get\/users.get.feature","scenarioResults":[{"sectionIndex":0,"stepResults":[{"result":{"nanos":133700000,"millis":133.7,"status":"passed"},"step":{"line":4,"prefix":"Given","index":0,"text":"url \"https:\/\/reqres.in\/\" + \"api\/users?page=2\""}},{"result":{"nanos":1175755500,"millis":1175.7555,"status":"passed"},"step":{"line":5,"prefix":"When","index":1,"text":"method get"},"stepLog":"19:25:36.240 request:\n1 > GET https:\/\/reqres.in\/api\/users?page=2\n1 > Host: reqres.in\n1 > Connection: Keep-Alive\n1 > User-Agent: Apache-HttpClient\/4.5.13 (Java\/11.0.16.1)\n1 > Accept-Encoding: gzip,deflate\n\n\n19:25:36.865 response time in milliseconds: 621\n1 < 200\n1 < Date: Wed, 19 Oct 2022 00:25:38 GMT\n1 < Content-Type: application\/json; charset=utf-8\n1 < Transfer-Encoding: chunked\n1 < Connection: keep-alive\n1 < X-Powered-By: Express\n1 < Access-Control-Allow-Origin: *\n1 < Etag: W\/\"406-ut0vzoCuidvyMf8arZpMpJ6ZRDw\"\n1 < Via: 1.1 vegur\n1 < Cache-Control: max-age=14400\n1 < CF-Cache-Status: HIT\n1 < Age: 3216\n1 < Report-To: {\"endpoints\":[{\"url\":\"https:\\\/\\\/a.nel.cloudflare.com\\\/report\\\/v3?s=Oa7VZUcuFfoQb9sqttzuDmUUc2Rb0KQIKG0tiua9dzg%2FnZP8yWRhfCjx6jVYWiN1rzWuiFgGgx%2BJi1Oa3oqRw%2BP7JlGQdB2UQPDc5edi9uOMlG8Twd38gzRROA%3D%3D\"}],\"group\":\"cf-nel\",\"max_age\":604800}\n1 < NEL: {\"success_fraction\":0,\"report_to\":\"cf-nel\",\"max_age\":604800}\n1 < Vary: Accept-Encoding\n1 < Server: cloudflare\n1 < CF-RAY: 75c560ad9e0c0355-MIA\n{\"page\":2,\"per_page\":6,\"total\":12,\"total_pages\":2,\"data\":[{\"id\":7,\"email\":\"michael.lawson@reqres.in\",\"first_name\":\"Michael\",\"last_name\":\"Lawson\",\"avatar\":\"https:\/\/reqres.in\/img\/faces\/7-image.jpg\"},{\"id\":8,\"email\":\"lindsay.ferguson@reqres.in\",\"first_name\":\"Lindsay\",\"last_name\":\"Ferguson\",\"avatar\":\"https:\/\/reqres.in\/img\/faces\/8-image.jpg\"},{\"id\":9,\"email\":\"tobias.funke@reqres.in\",\"first_name\":\"Tobias\",\"last_name\":\"Funke\",\"avatar\":\"https:\/\/reqres.in\/img\/faces\/9-image.jpg\"},{\"id\":10,\"email\":\"byron.fields@reqres.in\",\"first_name\":\"Byron\",\"last_name\":\"Fields\",\"avatar\":\"https:\/\/reqres.in\/img\/faces\/10-image.jpg\"},{\"id\":11,\"email\":\"george.edwards@reqres.in\",\"first_name\":\"George\",\"last_name\":\"Edwards\",\"avatar\":\"https:\/\/reqres.in\/img\/faces\/11-image.jpg\"},{\"id\":12,\"email\":\"rachel.howell@reqres.in\",\"first_name\":\"Rachel\",\"last_name\":\"Howell\",\"avatar\":\"https:\/\/reqres.in\/img\/faces\/12-image.jpg\"}],\"support\":{\"url\":\"https:\/\/reqres.in\/#support-heading\",\"text\":\"To keep ReqRes free, contributions towards server costs are appreciated!\"}}\n\n"},{"result":{"nanos":36600,"millis":0.0366,"status":"passed"},"step":{"line":6,"prefix":"Then","index":2,"text":"status 200"}}],"executorName":"main","line":3,"name":"Get users","description":"","durationMillis":1309.4921,"startTime":1666139135588,"failed":false,"refId":"[1:3]","endTime":1666139136916,"exampleIndex":-1},{"sectionIndex":1,"stepResults":[{"result":{"nanos":996100,"millis":0.9961,"status":"passed"},"step":{"line":10,"prefix":"Given","index":0,"text":"url \"https:\/\/reqres.in\/\"+\"\/api\/users\""}},{"result":{"nanos":28703300,"millis":28.7033,"status":"passed"},"step":{"line":11,"prefix":"And","index":1,"text":"request {\"name\": \"morpheus\",\"job\": \"leader\"}"}},{"result":{"nanos":550659200,"millis":550.6592,"status":"passed"},"step":{"line":12,"prefix":"When","index":2,"text":"method post"},"stepLog":"19:25:37.016 request:\n1 > POST https:\/\/reqres.in\/\/api\/users\n1 > Content-Type: application\/json; charset=UTF-8\n1 > Content-Length: 34\n1 > Host: reqres.in\n1 > Connection: Keep-Alive\n1 > User-Agent: Apache-HttpClient\/4.5.13 (Java\/11.0.16.1)\n1 > Accept-Encoding: gzip,deflate\n{\"name\":\"morpheus\",\"job\":\"leader\"}\n\n19:25:37.508 response time in milliseconds: 491\n1 < 201\n1 < Date: Wed, 19 Oct 2022 00:25:38 GMT\n1 < Content-Type: application\/json; charset=utf-8\n1 < Content-Length: 84\n1 < Connection: keep-alive\n1 < X-Powered-By: Express\n1 < Access-Control-Allow-Origin: *\n1 < Etag: W\/\"54-ZQU0vv4RzRfk34b9bAArSRykmQA\"\n1 < Via: 1.1 vegur\n1 < CF-Cache-Status: DYNAMIC\n1 < Report-To: {\"endpoints\":[{\"url\":\"https:\\\/\\\/a.nel.cloudflare.com\\\/report\\\/v3?s=ir4nnkl1EpRkVSzQ8aJqC%2F2v1YzaNHjUg0tyvLDMCnRpdIVru8jT1bZkLKQ6hyA1toJ%2B0rHbmEOKVSRvq3Ys3X7Qe1Iy95fdux6uomMh19%2FkSVMK4t9jpoWeOQ%3D%3D\"}],\"group\":\"cf-nel\",\"max_age\":604800}\n1 < NEL: {\"success_fraction\":0,\"report_to\":\"cf-nel\",\"max_age\":604800}\n1 < Server: cloudflare\n1 < CF-RAY: 75c560b03ea32209-MIA\n{\"name\":\"morpheus\",\"job\":\"leader\",\"id\":\"632\",\"createdAt\":\"2022-10-19T00:25:38.782Z\"}\n\n"},{"result":{"nanos":10700,"millis":0.0107,"status":"passed"},"step":{"line":13,"prefix":"Then","index":3,"text":"status 201"}}],"executorName":"main","line":9,"name":"Post new user","description":"","durationMillis":580.3693,"startTime":1666139136928,"failed":false,"refId":"[2:9]","endTime":1666139137509,"exampleIndex":-1}],"callDepth":0,"name":"Get user on resq","description":"","resultDate":"2022-10-18 07:25:37 p. m.","durationMillis":1889.8614,"passedCount":2}