{"failedCount":1,"prefixedPath":"src\/test\/java\/Api\/get\/users.get.feature","packageQualifiedName":"src.test.java.Api.get.users.get","loopIndex":-1,"relativePath":"src\/test\/java\/Api\/get\/users.get.feature","scenarioResults":[{"sectionIndex":0,"stepResults":[{"result":{"nanos":123013600,"millis":123.0136,"status":"passed"},"step":{"line":4,"prefix":"Given","index":0,"text":"url \"https:\/\/reqres.in\/\" + \"api\/users?page=2\""}},{"result":{"nanos":1297236500,"millis":1297.2365,"status":"passed"},"step":{"line":5,"prefix":"When","index":1,"text":"method get"},"stepLog":"19:20:51.822 request:\n1 > GET https:\/\/reqres.in\/api\/users?page=2\n1 > Host: reqres.in\n1 > Connection: Keep-Alive\n1 > User-Agent: Apache-HttpClient\/4.5.13 (Java\/11.0.16.1)\n1 > Accept-Encoding: gzip,deflate\n\n\n19:20:52.595 response time in milliseconds: 769\n1 < 200\n1 < Date: Wed, 19 Oct 2022 00:20:53 GMT\n1 < Content-Type: application\/json; charset=utf-8\n1 < Transfer-Encoding: chunked\n1 < Connection: keep-alive\n1 < X-Powered-By: Express\n1 < Access-Control-Allow-Origin: *\n1 < Etag: W\/\"406-ut0vzoCuidvyMf8arZpMpJ6ZRDw\"\n1 < Via: 1.1 vegur\n1 < Cache-Control: max-age=14400\n1 < CF-Cache-Status: HIT\n1 < Age: 1998\n1 < Report-To: {\"endpoints\":[{\"url\":\"https:\\\/\\\/a.nel.cloudflare.com\\\/report\\\/v3?s=NSANyua%2FQA13lj5fLQJiW0PTYYD7%2FPJ70vbLE%2BEEpFxy6KD56aALv%2B5Z2pwO0UQT5A7WzRbaHX9mvudejseUg3bdG7lqMaEg6QTcmTF2UZtZozMrXo0gz9%2Fjqg%3D%3D\"}],\"group\":\"cf-nel\",\"max_age\":604800}\n1 < NEL: {\"success_fraction\":0,\"report_to\":\"cf-nel\",\"max_age\":604800}\n1 < Vary: Accept-Encoding\n1 < Server: cloudflare\n1 < CF-RAY: 75c559bcda9009f6-MIA\n{\"page\":2,\"per_page\":6,\"total\":12,\"total_pages\":2,\"data\":[{\"id\":7,\"email\":\"michael.lawson@reqres.in\",\"first_name\":\"Michael\",\"last_name\":\"Lawson\",\"avatar\":\"https:\/\/reqres.in\/img\/faces\/7-image.jpg\"},{\"id\":8,\"email\":\"lindsay.ferguson@reqres.in\",\"first_name\":\"Lindsay\",\"last_name\":\"Ferguson\",\"avatar\":\"https:\/\/reqres.in\/img\/faces\/8-image.jpg\"},{\"id\":9,\"email\":\"tobias.funke@reqres.in\",\"first_name\":\"Tobias\",\"last_name\":\"Funke\",\"avatar\":\"https:\/\/reqres.in\/img\/faces\/9-image.jpg\"},{\"id\":10,\"email\":\"byron.fields@reqres.in\",\"first_name\":\"Byron\",\"last_name\":\"Fields\",\"avatar\":\"https:\/\/reqres.in\/img\/faces\/10-image.jpg\"},{\"id\":11,\"email\":\"george.edwards@reqres.in\",\"first_name\":\"George\",\"last_name\":\"Edwards\",\"avatar\":\"https:\/\/reqres.in\/img\/faces\/11-image.jpg\"},{\"id\":12,\"email\":\"rachel.howell@reqres.in\",\"first_name\":\"Rachel\",\"last_name\":\"Howell\",\"avatar\":\"https:\/\/reqres.in\/img\/faces\/12-image.jpg\"}],\"support\":{\"url\":\"https:\/\/reqres.in\/#support-heading\",\"text\":\"To keep ReqRes free, contributions towards server costs are appreciated!\"}}\n\n"},{"result":{"nanos":0,"errorMessage":"no step-definition method match found for: status <200>\nsrc\/test\/java\/Api\/get\/users.get.feature:6","millis":0.0,"status":"failed"},"step":{"line":6,"prefix":"Then","index":2,"text":"status <200>"},"stepLog":"19:20:52.653 src\/test\/java\/Api\/get\/users.get.feature:6\nThen status <200>\nno step-definition method match found for: status <200>\nsrc\/test\/java\/Api\/get\/users.get.feature:6\n"}],"line":3,"description":"","durationMillis":1420.2501,"failed":true,"error":"no step-definition method match found for: status <200>\nsrc\/test\/java\/Api\/get\/users.get.feature:6","executorName":"main","name":"Get users","startTime":1666138851214,"refId":"[1:3]","endTime":1666138852653,"exampleIndex":-1}],"callDepth":0,"name":"Get user on resq","description":"","resultDate":"2022-10-18 07:20:52 p. m.","durationMillis":1420.2501,"passedCount":0}