{"failedCount":0,"prefixedPath":"src\/test\/java\/Api\/tests\/users.feature","packageQualifiedName":"src.test.java.Api.tests.users","loopIndex":-1,"relativePath":"src\/test\/java\/Api\/tests\/users.feature","scenarioResults":[{"sectionIndex":0,"stepResults":[{"result":{"nanos":136223600,"millis":136.2236,"status":"passed"},"step":{"line":4,"prefix":"Given","index":0,"text":"url \"https:\/\/reqres.in\/\" + \"api\/users?page=2\""}},{"result":{"nanos":1696386500,"millis":1696.3865,"status":"passed"},"step":{"line":5,"prefix":"When","index":1,"text":"method get"},"stepLog":"21:02:32.517 request:\n1 > GET https:\/\/reqres.in\/api\/users?page=2\n1 > Host: reqres.in\n1 > Connection: Keep-Alive\n1 > User-Agent: Apache-HttpClient\/4.5.13 (Java\/11.0.16.1)\n1 > Accept-Encoding: gzip,deflate\n\n\n21:02:33.565 response time in milliseconds: 1035\n1 < 200\n1 < Date: Thu, 20 Oct 2022 02:02:35 GMT\n1 < Content-Type: application\/json; charset=utf-8\n1 < Transfer-Encoding: chunked\n1 < Connection: keep-alive\n1 < X-Powered-By: Express\n1 < Access-Control-Allow-Origin: *\n1 < Etag: W\/\"406-ut0vzoCuidvyMf8arZpMpJ6ZRDw\"\n1 < Via: 1.1 vegur\n1 < Cache-Control: max-age=14400\n1 < CF-Cache-Status: REVALIDATED\n1 < Report-To: {\"endpoints\":[{\"url\":\"https:\\\/\\\/a.nel.cloudflare.com\\\/report\\\/v3?s=uDYKBvE75KRYXMKnSPsyuvLf2FscOF%2BbiEKuoP0XMtXLpzgttQjE5lzqrR1OFGLoJBv5ImPsKYmx3FJ0MtcImblYFPZsN5yg9ENEZbORFzzAzMiMR0VhMB%2BBbA%3D%3D\"}],\"group\":\"cf-nel\",\"max_age\":604800}\n1 < NEL: {\"success_fraction\":0,\"report_to\":\"cf-nel\",\"max_age\":604800}\n1 < Vary: Accept-Encoding\n1 < Server: cloudflare\n1 < CF-RAY: 75ce2c0f3ee6da83-MIA\n{\"page\":2,\"per_page\":6,\"total\":12,\"total_pages\":2,\"data\":[{\"id\":7,\"email\":\"michael.lawson@reqres.in\",\"first_name\":\"Michael\",\"last_name\":\"Lawson\",\"avatar\":\"https:\/\/reqres.in\/img\/faces\/7-image.jpg\"},{\"id\":8,\"email\":\"lindsay.ferguson@reqres.in\",\"first_name\":\"Lindsay\",\"last_name\":\"Ferguson\",\"avatar\":\"https:\/\/reqres.in\/img\/faces\/8-image.jpg\"},{\"id\":9,\"email\":\"tobias.funke@reqres.in\",\"first_name\":\"Tobias\",\"last_name\":\"Funke\",\"avatar\":\"https:\/\/reqres.in\/img\/faces\/9-image.jpg\"},{\"id\":10,\"email\":\"byron.fields@reqres.in\",\"first_name\":\"Byron\",\"last_name\":\"Fields\",\"avatar\":\"https:\/\/reqres.in\/img\/faces\/10-image.jpg\"},{\"id\":11,\"email\":\"george.edwards@reqres.in\",\"first_name\":\"George\",\"last_name\":\"Edwards\",\"avatar\":\"https:\/\/reqres.in\/img\/faces\/11-image.jpg\"},{\"id\":12,\"email\":\"rachel.howell@reqres.in\",\"first_name\":\"Rachel\",\"last_name\":\"Howell\",\"avatar\":\"https:\/\/reqres.in\/img\/faces\/12-image.jpg\"}],\"support\":{\"url\":\"https:\/\/reqres.in\/#support-heading\",\"text\":\"To keep ReqRes free, contributions towards server costs are appreciated!\"}}\n\n"},{"result":{"nanos":29900,"millis":0.0299,"status":"passed"},"step":{"line":6,"prefix":"Then","index":2,"text":"status 200"}}],"executorName":"main","line":3,"name":"Get users","description":"","durationMillis":1832.64,"startTime":1666231351761,"failed":false,"refId":"[1:3]","endTime":1666231353613,"exampleIndex":-1},{"sectionIndex":1,"stepResults":[{"result":{"nanos":876500,"millis":0.8765,"status":"passed"},"step":{"line":9,"prefix":"Given","index":0,"text":"url \"https:\/\/reqres.in\/\"+\"\/api\/users\""}},{"result":{"nanos":26066700,"millis":26.0667,"status":"passed"},"step":{"line":10,"prefix":"And","index":1,"text":"request {\"name\": \"morpheus\",\"job\": \"leader\"}"}},{"result":{"nanos":599655400,"millis":599.6554,"status":"passed"},"step":{"line":11,"prefix":"When","index":2,"text":"method post"},"stepLog":"21:02:33.722 request:\n1 > POST https:\/\/reqres.in\/\/api\/users\n1 > Content-Type: application\/json; charset=UTF-8\n1 > Content-Length: 34\n1 > Host: reqres.in\n1 > Connection: Keep-Alive\n1 > User-Agent: Apache-HttpClient\/4.5.13 (Java\/11.0.16.1)\n1 > Accept-Encoding: gzip,deflate\n{\"name\":\"morpheus\",\"job\":\"leader\"}\n\n21:02:34.247 response time in milliseconds: 525\n1 < 201\n1 < Date: Thu, 20 Oct 2022 02:02:35 GMT\n1 < Content-Type: application\/json; charset=utf-8\n1 < Content-Length: 84\n1 < Connection: keep-alive\n1 < X-Powered-By: Express\n1 < Access-Control-Allow-Origin: *\n1 < Etag: W\/\"54-VDWJ1a5ER+BQcqnpwW+QFqFOxCg\"\n1 < Via: 1.1 vegur\n1 < CF-Cache-Status: DYNAMIC\n1 < Report-To: {\"endpoints\":[{\"url\":\"https:\\\/\\\/a.nel.cloudflare.com\\\/report\\\/v3?s=BRUV7AjHYWXtz8SAhKME%2BVGSIRXiYrEnrxQSRKtBvSPBqRou75LroDn0CumFyCy4ISjaSoU6Gw%2B%2B7P%2B1duoAeaoLFIpeTDC22UlCoIoz2CVSQjb%2FBEP687QVVA%3D%3D\"}],\"group\":\"cf-nel\",\"max_age\":604800}\n1 < NEL: {\"success_fraction\":0,\"report_to\":\"cf-nel\",\"max_age\":604800}\n1 < Server: cloudflare\n1 < CF-RAY: 75ce2c13afed6ddd-MIA\n{\"name\":\"morpheus\",\"job\":\"leader\",\"id\":\"767\",\"createdAt\":\"2022-10-20T02:02:35.667Z\"}\n\n"},{"result":{"nanos":14000,"millis":0.014,"status":"passed"},"step":{"line":12,"prefix":"Then","index":3,"text":"status 201"}}],"executorName":"main","line":8,"name":"Post new user","description":"","durationMillis":626.6126,"startTime":1666231353622,"failed":false,"refId":"[2:8]","endTime":1666231354249,"exampleIndex":-1},{"sectionIndex":2,"stepResults":[{"result":{"nanos":1064100,"millis":1.0641,"status":"passed"},"step":{"line":15,"prefix":"Given","index":0,"text":"url \"https:\/\/reqres.in\/\"+\"api\/users\/2\""}},{"result":{"nanos":756000,"millis":0.756,"status":"passed"},"step":{"line":16,"prefix":"And","index":1,"text":"request {\"name\": \"Ramiro\", \"job\": \"Programador\"}"}},{"result":{"nanos":521480600,"millis":521.4806,"status":"passed"},"step":{"line":17,"prefix":"When","index":2,"text":"method put"},"stepLog":"21:02:34.269 request:\n1 > PUT https:\/\/reqres.in\/api\/users\/2\n1 > Content-Type: application\/json; charset=UTF-8\n1 > Content-Length: 37\n1 > Host: reqres.in\n1 > Connection: Keep-Alive\n1 > User-Agent: Apache-HttpClient\/4.5.13 (Java\/11.0.16.1)\n1 > Accept-Encoding: gzip,deflate\n{\"name\":\"Ramiro\",\"job\":\"Programador\"}\n\n21:02:34.787 response time in milliseconds: 517\n1 < 200\n1 < Date: Thu, 20 Oct 2022 02:02:36 GMT\n1 < Content-Type: application\/json; charset=utf-8\n1 < Transfer-Encoding: chunked\n1 < Connection: keep-alive\n1 < X-Powered-By: Express\n1 < Access-Control-Allow-Origin: *\n1 < Etag: W\/\"4c-mVGwv0LT\/5DSrJqhH8vVr2Rf7B0\"\n1 < Via: 1.1 vegur\n1 < CF-Cache-Status: DYNAMIC\n1 < Report-To: {\"endpoints\":[{\"url\":\"https:\\\/\\\/a.nel.cloudflare.com\\\/report\\\/v3?s=M2YlhXmFN%2BjNHhb9UPLtaf38%2FREh31GaRkVFqYIqrzh%2Bhy03r04Hm7ktCZfpa1mtqwHp9dNtxHmKn5quUtL4937BP27rumgygi0TxPs36dO4NbzRtsntFNuijw%3D%3D\"}],\"group\":\"cf-nel\",\"max_age\":604800}\n1 < NEL: {\"success_fraction\":0,\"report_to\":\"cf-nel\",\"max_age\":604800}\n1 < Vary: Accept-Encoding\n1 < Server: cloudflare\n1 < CF-RAY: 75ce2c171f833713-MIA\n{\"name\":\"Ramiro\",\"job\":\"Programador\",\"updatedAt\":\"2022-10-20T02:02:36.208Z\"}\n\n"},{"result":{"nanos":13500,"millis":0.0135,"status":"passed"},"step":{"line":18,"prefix":"Then","index":3,"text":"status 200"}},{"result":{"nanos":55357700,"millis":55.3577,"status":"passed"},"step":{"line":19,"prefix":"And","index":4,"text":"match $.name == 'Ramiro'"}},{"result":{"nanos":1030500,"millis":1.0305,"status":"passed"},"step":{"line":20,"prefix":"And","index":5,"text":"match $.job == 'Programador'"}}],"executorName":"main","line":14,"name":"Put request","description":"","durationMillis":579.7024,"startTime":1666231354263,"failed":false,"refId":"[3:14]","endTime":1666231354845,"exampleIndex":-1}],"callDepth":0,"name":"Get user on resq","description":"","resultDate":"2022-10-19 09:02:34 p. m.","durationMillis":3038.955,"passedCount":3}